<svg width="20" height="20" viewBox="0 0 20 20" fill="none" xmlns="http://www.w3.org/2000/svg">
<path d="M2.5 1.85H1.85V3.15H2.5V1.85ZM4.16667 2.5L4.80404 2.37252C4.74328 2.0687 4.47651 1.85 4.16667 1.85V2.5ZM14.1667 10.8333V11.4833C14.4129 11.4833 14.6379 11.3442 14.748 11.124L14.1667 10.8333ZM17.5 4.16667L18.0814 4.45736C18.1821 4.25586 18.1714 4.01657 18.0529 3.82494C17.9345 3.63331 17.7253 3.51667 17.5 3.51667V4.16667ZM7.5 15.8333H6.85H7.5ZM4.16667 15.8333H3.51667H4.16667ZM2.5 3.15H4.16667V1.85H2.5V3.15ZM3.52929 2.62748L3.86262 4.29414L5.13738 4.03919L4.80404 2.37252L3.52929 2.62748ZM5.83333 11.4833H14.1667V10.1833H5.83333V11.4833ZM14.748 11.124L18.0814 4.45736L16.9186 3.87598L13.5853 10.5426L14.748 11.124ZM17.5 3.51667H4.5V4.81667H17.5V3.51667ZM3.86262 4.29414L5.19596 10.9608L6.47071 10.7059L5.13738 4.03919L3.86262 4.29414ZM5.37371 10.3737L3.46288 12.2845L4.38212 13.2038L6.29295 11.293L5.37371 10.3737ZM3.46288 12.2845C2.52849 13.2189 3.18996 14.8167 4.51167 14.8167V13.5167C4.34837 13.5167 4.26651 13.3194 4.38212 13.2038L3.46288 12.2845ZM4.51167 14.8167H14.1667V13.5167H4.51167V14.8167ZM14.1667 13.5167C13.5522 13.5167 12.963 13.7607 12.5285 14.1952L13.4478 15.1144C13.6384 14.9238 13.897 14.8167 14.1667 14.8167V13.5167ZM12.5285 14.1952C12.0941 14.6297 11.85 15.2189 11.85 15.8333H13.15C13.15 15.5637 13.2571 15.3051 13.4478 15.1144L12.5285 14.1952ZM11.85 15.8333C11.85 16.4478 12.0941 17.037 12.5285 17.4715L13.4478 16.5522C13.2571 16.3616 13.15 16.103 13.15 15.8333H11.85ZM12.5285 17.4715C12.963 17.9059 13.5522 18.15 14.1667 18.15V16.85C13.897 16.85 13.6384 16.7429 13.4478 16.5522L12.5285 17.4715ZM14.1667 18.15C14.7811 18.15 15.3703 17.9059 15.8048 17.4715L14.8856 16.5522C14.6949 16.7429 14.4363 16.85 14.1667 16.85V18.15ZM15.8048 17.4715C16.2393 17.037 16.4833 16.4478 16.4833 15.8333H15.1833C15.1833 16.103 15.0762 16.3616 14.8856 16.5522L15.8048 17.4715ZM16.4833 15.8333C16.4833 15.2189 16.2393 14.6297 15.8048 14.1952L14.8856 15.1144C15.0762 15.3051 15.1833 15.5637 15.1833 15.8333H16.4833ZM15.8048 14.1952C15.3703 13.7607 14.7811 13.5167 14.1667 13.5167V14.8167C14.4363 14.8167 14.6949 14.9238 14.8856 15.1144L15.8048 14.1952ZM6.85 15.8333C6.85 16.103 6.74289 16.3616 6.55222 16.5522L7.47146 17.4715C7.90592 17.037 8.15 16.4478 8.15 15.8333H6.85ZM6.55222 16.5522C6.36156 16.7429 6.10297 16.85 5.83333 16.85V18.15C6.44775 18.15 7.037 17.9059 7.47146 17.4715L6.55222 16.5522ZM5.83333 16.85C5.5637 16.85 5.3051 16.7429 5.11444 16.5522L4.1952 17.4715C4.62966 17.9059 5.21891 18.15 5.83333 18.15V16.85ZM5.11444 16.5522C4.92378 16.3616 4.81667 16.103 4.81667 15.8333H3.51667C3.51667 16.4478 3.76074 17.037 4.1952 17.4715L5.11444 16.5522ZM4.81667 15.8333C4.81667 15.5637 4.92378 15.3051 5.11444 15.1144L4.1952 14.1952C3.76074 14.6297 3.51667 15.2189 3.51667 15.8333H4.81667ZM5.11444 15.1144C5.3051 14.9238 5.5637 14.8167 5.83333 14.8167V13.5167C5.21891 13.5167 4.62966 13.7607 4.1952 14.1952L5.11444 15.1144ZM5.83333 14.8167C6.10297 14.8167 6.36156 14.9238 6.55222 15.1144L7.47146 14.1952C7.037 13.7607 6.44775 13.5167 5.83333 13.5167V14.8167ZM6.55222 15.1144C6.74289 15.3051 6.85 15.5637 6.85 15.8333H8.15C8.15 15.2189 7.90592 14.6297 7.47146 14.1952L6.55222 15.1144Z" fill="#202A44"/>
</svg>
