<svg width="873" height="685" viewBox="0 0 873 685" fill="none" xmlns="http://www.w3.org/2000/svg">
  <path fill-rule="evenodd" clip-rule="evenodd" d="M600.498 163.571C639.529 160.405 676.166 151.666 697.986 144.57L697.681 143.619C675.927 150.694 639.366 159.415 600.421 162.574C561.462 165.734 520.192 163.32 488.966 148.193C455.294 131.88 438.226 115.832 423.944 102.403L423.943 102.402C421.639 100.235 419.407 98.1373 417.191 96.1173C409.203 88.8396 401.392 82.5641 391.061 77.7972C380.731 73.0303 367.912 69.7853 349.917 68.5198C314.823 66.0519 282.33 49.6607 250.318 33.5119L248.432 32.5604C215.853 16.1318 183.716 0.235478 149.96 0.139994C146.413 0.12995 142.437 0.11083 138.079 0.0898657C101.137 -0.0877948 36.7224 -0.397588 -26.8704 3.5739C-62.418 5.79391 -97.7215 9.35235 -127.834 15.0226C-157.927 20.6889 -182.91 28.4768 -197.758 39.1983C-212.48 49.8286 -229.19 59.1668 -246.416 68.4255C-249.459 70.061 -252.519 71.6941 -255.586 73.3314L-255.588 73.3326L-255.609 73.344C-269.888 80.9663 -284.337 88.6793 -298.107 97.1469C-331.582 117.732 -361.138 142.831 -374.693 182.131C-401.601 260.145 -476.819 301.367 -564.906 295.035C-635.587 289.954 -719.75 304.468 -753 312.359L-752.773 313.332C-719.57 305.452 -635.519 290.962 -564.981 296.032C-476.543 302.389 -400.835 260.988 -373.748 182.454C-360.305 143.48 -330.987 118.538 -297.586 97.9983C-283.845 89.5485 -269.429 81.853 -255.151 74.2312C-252.074 72.5883 -249.002 70.9489 -245.946 69.306C-228.718 60.0464 -211.956 50.6811 -197.175 40.0083C-182.52 29.4266 -157.729 21.6687 -127.653 16.0054C-97.5978 10.346 -62.3402 6.79082 -26.8121 4.57204C36.7446 0.6028 101.125 0.912331 138.069 1.08994L138.091 1.09005C142.441 1.11096 146.411 1.13004 149.953 1.14007C183.433 1.2348 215.356 17.003 247.979 33.4538L249.945 34.4455C281.896 50.5641 314.546 67.0352 349.843 69.5174C367.75 70.7768 380.445 74.0015 390.639 78.7056C400.833 83.4096 408.557 89.6062 416.515 96.8578C418.725 98.8714 420.952 100.966 423.254 103.13C437.545 116.568 454.713 132.712 488.527 149.093C519.993 164.337 561.479 166.735 600.498 163.571ZM534.683 381.636C545.296 368.514 555.233 354.035 561.221 339.092C567.207 324.154 569.234 308.788 564.083 293.858C558.931 278.927 546.572 264.347 523.612 251.042C500.65 237.736 467.117 225.723 419.687 215.923C372.216 206.113 344.22 198.06 324.976 191.224C315.353 187.806 307.923 184.694 301.345 181.823C299.64 181.078 297.993 180.351 296.381 179.639C291.772 177.602 287.448 175.691 282.849 173.872C258.064 164.071 225.375 156.984 98.868 148.348C-27.5124 139.722 -134.642 176.322 -212.341 222.224C-251.191 245.175 -282.676 270.449 -305.525 293.549C-328.391 316.666 -342.561 337.559 -346.854 351.742C-355.462 380.181 -350.259 435.921 -318.002 485.564C-285.771 535.168 -226.526 578.68 -127.046 582.684C-27.5062 586.691 37.262 565.155 94.221 538.61C109.154 531.651 123.56 524.342 137.921 517.055C178.323 496.554 218.372 476.234 268.81 464.395L268.822 464.393L268.834 464.39C286.028 461.222 303.575 458.278 321.087 455.34C357.109 449.296 392.985 443.277 425.334 435.378C473.425 423.634 513.546 407.77 534.683 381.636ZM419.891 214.943C467.376 224.755 501.024 236.796 524.114 250.177C547.209 263.56 559.775 278.305 565.028 293.531C570.282 308.758 568.193 324.382 562.149 339.463C556.107 354.541 546.099 369.11 535.46 382.265C514.092 408.683 473.664 424.605 425.57 436.349C393.186 444.257 357.247 450.287 321.203 456.334L321.202 456.334L321.195 456.336C303.698 459.271 286.177 462.211 269.026 465.372C218.72 477.181 178.825 497.423 138.456 517.906C124.076 525.203 109.635 532.53 94.6425 539.517C37.5748 566.112 -27.3526 587.698 -127.088 583.683C-226.883 579.667 -286.429 535.991 -318.841 486.11C-351.227 436.267 -356.52 380.224 -347.811 351.453C-343.446 337.031 -329.132 315.994 -306.236 292.846C-283.323 269.682 -251.769 244.356 -212.849 221.363C-135.008 175.377 -27.6787 138.708 98.9373 147.351C225.426 155.985 258.267 163.076 283.218 172.942C287.836 174.769 292.186 176.691 296.802 178.73C298.41 179.441 300.051 180.166 301.746 180.906C308.311 183.772 315.718 186.874 325.312 190.282C344.499 197.097 372.448 205.14 419.891 214.943ZM345.901 351.642C354.085 337.173 355.045 324.818 351.334 314.369C347.616 303.901 339.18 295.263 328.409 288.31C306.861 274.4 276.16 267.359 256.097 265.887L256.064 265.884L256.032 265.878C247.84 264.185 238.963 262.823 229.506 261.373C192.83 255.747 147.421 248.782 99.2935 215.957C60.0233 189.172 1.29388 191.366 -51.0073 211.574C-103.307 231.782 -148.969 269.923 -162.176 314.766C-175.362 359.542 -149.038 412.129 -104.49 447.29C-59.9661 482.433 2.59833 500.027 61.639 474.958C108.544 455.043 151.223 447.155 189.329 440.111C203.511 437.49 217.059 434.986 229.957 432.022C253.749 426.555 275.337 419.527 294.673 407.339C314.002 395.156 331.105 377.8 345.901 351.642ZM328.959 287.471C307.236 273.448 276.377 266.379 256.212 264.894C247.967 263.191 239.058 261.824 229.583 260.37C192.92 254.744 147.786 247.817 99.8646 215.132C60.2079 188.084 1.08777 190.379 -51.3631 210.644C-103.815 230.911 -149.807 269.229 -163.137 314.492C-176.487 359.823 -149.821 412.789 -105.117 448.074C-60.389 483.378 2.55914 501.125 62.0256 475.876C108.82 456.007 151.332 448.15 189.41 441.112L189.411 441.112L189.411 441.112L189.412 441.111C203.619 438.486 217.209 435.974 230.174 432.995C254.014 427.517 275.729 420.457 295.204 408.181C314.686 395.901 331.902 378.417 346.773 352.126C355.07 337.458 356.105 324.802 352.279 314.03C348.461 303.279 339.83 294.489 328.959 287.471ZM871.59 398.575C849.814 381.406 813.894 358.368 776.925 345.053C739.921 331.726 702.06 328.207 676.207 349.762C659.942 363.322 643.632 380.766 626.9 399.44C622.819 403.995 618.713 408.622 614.577 413.284C601.761 427.727 588.655 442.498 575.112 456.427C539.296 493.263 500.297 524.349 455.203 528.057C432.814 529.898 403.408 537.357 370.997 547.801C338.595 558.243 303.22 571.659 268.903 585.397C241.752 596.268 215.269 607.338 191.447 617.295L191.439 617.298L191.251 617.377C185.034 619.976 178.999 622.499 173.181 624.922C145.035 636.645 121.958 646.047 108.014 650.46C80.1535 659.277 23.9681 673.716 -37.236 680.726C-98.4206 687.732 -164.713 687.325 -212.729 666.37C-236.666 655.923 -254.802 648.644 -269.303 642.908C-271.364 642.093 -273.352 641.309 -275.273 640.551C-286.863 635.979 -296.018 632.368 -304.087 628.698C-322.934 620.127 -335.864 611.232 -360.19 589.05C-376.933 573.781 -388.121 565.692 -396.858 561.016C-405.074 556.618 -411.135 555.228 -417.677 553.729C-418.082 553.636 -418.488 553.543 -418.897 553.448C-425.938 551.824 -433.666 549.864 -445.162 543.813C-456.646 537.769 -471.879 527.65 -493.958 509.723C-508.363 498.026 -521.408 486.891 -533.611 476.475C-593.266 425.553 -632.806 391.801 -712.873 393.5L-712.891 392.5C-632.419 390.793 -592.569 424.816 -532.891 475.767L-532.888 475.769C-520.699 486.175 -507.684 497.288 -493.326 508.946C-471.274 526.851 -456.098 536.926 -444.694 542.928C-433.302 548.924 -425.666 550.86 -418.67 552.474C-418.259 552.569 -417.849 552.663 -417.441 552.756C-410.893 554.257 -404.719 555.672 -396.384 560.134C-387.543 564.866 -376.284 573.018 -359.515 588.31C-335.234 610.452 -322.39 619.274 -303.671 627.787C-295.628 631.445 -286.502 635.045 -274.91 639.618C-272.987 640.376 -270.997 641.161 -268.933 641.978C-254.426 647.716 -236.278 655 -212.326 665.453C-164.564 686.297 -98.4959 686.735 -37.3467 679.732C23.7831 672.731 79.905 658.307 107.715 649.507C121.607 645.11 144.637 635.728 172.799 623.999C178.672 621.552 184.769 619.004 191.051 616.378L191.06 616.374C214.883 606.416 241.375 595.342 268.534 584.469C302.859 570.727 338.258 557.301 370.693 546.849C403.12 536.4 432.616 528.911 455.124 527.06C499.822 523.385 538.594 492.553 574.396 455.731C587.921 441.821 601.005 427.075 613.816 412.636L613.818 412.634L613.819 412.633C617.958 407.968 622.068 403.336 626.156 398.774C642.89 380.099 659.242 362.606 675.569 348.994C701.862 327.072 740.203 330.764 777.266 344.112C814.364 357.473 850.377 380.575 872.211 397.789L871.59 398.575Z" fill="#E2E7EC"/>
</svg>
