<svg width="256" height="48" viewBox="0 0 256 48" fill="none" xmlns="http://www.w3.org/2000/svg">
<path d="M28.3112 47.6072C41.3291 45.2288 49.9827 32.7083 47.6077 19.6913C46.4541 13.3847 42.9184 7.90649 37.6434 4.2639C32.3683 0.617734 25.9933 -0.753594 19.6862 0.396322C6.67188 2.77472 -1.98528 15.2988 0.393294 28.3121C2.50758 39.8756 12.629 48 23.9898 48C25.4112 48 26.8612 47.8714 28.3112 47.6072ZM30.4326 45.1895C30.7969 43.9182 30.9791 42.2076 30.0112 40.7934C29.2541 39.6863 27.9291 39.2149 26.6219 38.7792C26.9933 36.9294 28.0719 36.5508 28.4505 36.4794C28.9041 36.3901 30.2862 36.1187 31.7898 38.3936C32.8969 40.0684 33.4291 42.6111 33.6469 43.936C32.6219 44.4288 31.5505 44.8502 30.4326 45.1895ZM11.8719 34.5224C11.8362 34.551 11.8005 34.5724 11.7647 34.601C11.1862 35.0617 10.4897 35.2616 9.80402 35.1616C9.17902 35.0688 8.61831 34.7295 8.26831 34.226C7.81831 33.576 7.67188 32.844 7.84688 32.1047C8.07545 31.1405 8.83973 30.2477 9.93974 29.6549L9.93617 29.6513C11.7755 28.6657 12.4362 27.3479 12.6183 26.2159C12.8755 26.2444 13.1397 26.2551 13.4005 26.2551C13.7255 26.2551 14.0397 26.2373 14.3147 26.2087C14.4862 26.9658 14.7362 27.6872 15.0647 28.3621C13.8469 28.7264 12.3147 29.4906 11.7433 31.0834C11.3326 32.2404 11.529 33.4153 11.8719 34.5224ZM17.0433 11.6598C17.7148 11.6455 18.3219 11.7312 18.804 12.0383C19.7469 12.6419 19.8898 14.0596 19.8826 14.9524C19.004 15.3524 18.204 15.8738 17.4933 16.488C17.1005 16.0702 16.6969 15.5309 16.5433 15.2095C17.0897 14.3489 17.3576 13.1525 17.0433 11.6598ZM21.0576 21.1377C20.9469 21.2519 20.8398 21.3769 20.7433 21.5019L17.0683 19.8306C17.5433 19.0414 18.154 18.3343 18.8719 17.7451L21.0576 21.1377ZM20.4255 16.7416C21.0826 16.4202 21.7898 16.1773 22.5433 16.0416C22.7219 16.0095 22.8969 15.9916 23.0719 15.9702V20.0056C22.9148 20.0413 22.7576 20.0877 22.6076 20.1413L20.4255 16.7416ZM19.9755 23.1839C19.9433 23.3411 19.9219 23.4982 19.9076 23.6589L15.9076 24.2374C15.879 23.2947 16.0183 22.3733 16.3005 21.5091L19.9755 23.1839ZM15.0219 19.7413C13.979 19.0128 12.4183 18.2807 10.8076 18.8307C9.64688 19.2271 8.85045 20.1127 8.19688 21.0698C8.15402 21.0591 8.11473 21.0448 8.06831 21.0377C7.34688 20.8734 6.75402 20.452 6.40759 19.8556C6.08973 19.3092 6.00759 18.6593 6.18259 18.07C6.40759 17.3129 6.88973 16.7416 7.57902 16.4202C8.42188 16.0238 9.51117 16.0416 10.5933 16.4487C11.5183 16.8773 12.3397 17.0487 13.0576 17.0487C13.904 17.0487 14.604 16.813 15.1612 16.4987C15.4755 16.9915 15.8755 17.4629 16.2219 17.8201C15.7505 18.4164 15.3469 19.0592 15.0219 19.7413ZM11.404 20.5806C12.4683 20.2163 13.6719 20.9984 14.3647 21.5626C14.1326 22.4697 14.029 23.4161 14.0647 24.3803C13.4933 24.4267 12.8219 24.4053 12.4755 24.3267C12.1433 23.3625 11.3719 22.409 10.0076 21.7233C10.4183 21.1912 10.8612 20.7663 11.404 20.5806ZM13.4862 31.7083C13.8647 30.6548 15.2183 30.1977 16.0897 30.0084C16.6683 30.7691 17.3505 31.4369 18.1148 31.9976C17.7933 32.4726 17.3612 32.9868 17.079 33.2082C16.1183 32.8654 14.8897 32.8725 13.504 33.5118C13.3469 32.8618 13.2897 32.2511 13.4862 31.7083ZM17.3147 28.5621C16.804 27.8193 16.4147 26.9801 16.1755 26.0659L20.1683 25.4874C20.2255 25.6373 20.2898 25.7838 20.3648 25.923L17.3147 28.5621ZM21.579 27.3158C21.7112 27.4122 21.8433 27.5015 21.9826 27.5801L20.8433 31.4512C19.9898 31.0869 19.2076 30.5834 18.5255 29.9585L21.579 27.3158ZM21.8219 24.3981C21.7148 23.816 21.8433 23.2268 22.179 22.7411C22.5148 22.2554 23.0219 21.9269 23.604 21.8233C24.1862 21.7162 24.7719 21.8448 25.2612 22.1805C25.7469 22.5161 26.0755 23.0232 26.179 23.6053C26.3969 24.8053 25.6005 25.9623 24.4005 26.1802C24.2648 26.2052 24.1326 26.2159 24.0005 26.2159C22.9505 26.2159 22.0148 25.4659 21.8219 24.3981ZM29.4541 29.9727C28.7719 30.5977 27.9933 31.0977 27.1398 31.4548L26.0076 27.5801C26.1469 27.5015 26.2826 27.4158 26.4112 27.3194L29.4541 29.9727ZM27.6255 25.9302C27.7005 25.7873 27.7648 25.6445 27.8255 25.4945L31.8183 26.0802C31.5826 26.9622 31.2041 27.8086 30.6719 28.5836L27.6255 25.9302ZM30.2612 31.7262C30.8862 32.8297 31.9719 34.1439 33.6505 34.3438C34.8683 34.4903 35.9684 34.0332 36.9719 33.4546C37.0076 33.4832 37.0362 33.5118 37.0719 33.5403C37.6505 34.001 38.0005 34.6367 38.0576 35.3259C38.1076 35.9544 37.9005 36.5794 37.4898 37.0329C36.9576 37.6186 36.2755 37.9186 35.5148 37.915C34.5255 37.9079 33.4826 37.3615 32.6576 36.4223L32.6326 36.4437C31.2648 34.8688 29.8291 34.5117 28.6826 34.5867C28.6148 34.0153 28.4648 33.4261 28.3112 32.9582C29.0076 32.6261 29.6612 32.2119 30.2612 31.7262ZM36.8255 21.5983C36.0255 22.3876 34.6005 22.209 33.7326 21.9983C33.5362 21.0448 33.2112 20.152 32.7755 19.3307C33.2719 19.0414 33.8898 18.7664 34.2362 18.6878C34.9541 19.4092 36.0648 19.9342 37.5898 19.9628C37.4505 20.6234 37.2326 21.1948 36.8255 21.5983ZM38.1219 22.9161C38.9969 22.0555 39.3255 20.9091 39.4969 19.7663C39.5398 19.7556 39.5826 19.7521 39.6291 19.7413C40.3505 19.5771 41.0648 19.6985 41.6398 20.0842C42.1648 20.4377 42.5219 20.9877 42.6184 21.5948C42.7434 22.3733 42.5576 23.0982 42.0791 23.6875C41.4862 24.416 40.4898 24.8731 39.3291 24.9695C37.1183 25.0088 35.8934 25.9337 35.2148 26.9051C34.7255 26.598 34.1648 26.3516 33.7005 26.1802C33.8648 25.4445 33.9433 24.6874 33.9362 23.9268C34.2898 23.9839 34.6826 24.0232 35.0898 24.0232C36.1255 24.0232 37.2541 23.7696 38.1219 22.9161ZM33.1326 27.9372C33.6648 28.1443 34.2541 28.4478 34.5291 28.6693C34.4112 29.6835 34.6933 30.8762 35.6219 32.0869C35.0219 32.3904 34.4398 32.5797 33.8683 32.5118C32.7612 32.3797 32.0183 31.1727 31.6362 30.3656C31.8255 30.137 32.0041 29.9013 32.1755 29.6585C32.5541 29.1085 32.8719 28.53 33.1326 27.9372ZM32.0862 24.2482L28.0933 23.6625C28.0826 23.5303 28.0648 23.3946 28.0398 23.2625C28.0362 23.2375 28.0291 23.2125 28.0219 23.1875L31.6933 21.5234C31.8005 21.8555 31.8933 22.1947 31.9576 22.5483C32.0648 23.1161 32.1041 23.6839 32.0862 24.2482ZM27.2612 21.5055C27.1612 21.3769 27.0612 21.2519 26.9469 21.1377L29.1326 17.7486C29.8433 18.3307 30.4576 19.0343 30.9362 19.8342L27.2612 21.5055ZM28.5041 15.1452C27.6648 14.7167 26.7612 14.406 25.8219 14.231C25.904 13.6632 26.0719 13.0097 26.229 12.6919C27.2433 12.5811 28.3433 12.0419 29.3183 10.867C29.7469 11.3848 30.0612 11.9098 30.1219 12.4812C30.2362 13.5954 29.2076 14.5989 28.5041 15.1452ZM27.5791 16.7523L25.3933 20.1377C25.2398 20.0842 25.0826 20.0342 24.9255 19.9985V15.9666C25.8576 16.0738 26.754 16.3452 27.5791 16.7523ZM23.7576 28.0979C23.9148 28.1086 24.0755 28.1086 24.2362 28.0979L25.3683 31.9726C24.4326 32.1333 23.504 32.1262 22.6183 31.9726L23.7576 28.0979ZM23.7576 33.9332C23.8362 33.9367 23.9148 33.9439 23.9969 33.9439C24.5862 33.9439 25.1862 33.8903 25.7862 33.7796C26.054 33.7296 26.3183 33.6689 26.5826 33.5975C26.754 34.1439 26.8826 34.7938 26.879 35.1474C26.0148 35.6866 25.254 36.6508 24.8862 38.1329C24.2755 37.8543 23.7648 37.515 23.4648 37.0258C22.8719 36.0723 23.3576 34.7331 23.7576 33.9332ZM35.3648 43.0075C35.1862 42.0683 34.8969 40.8362 34.4469 39.6292C34.7969 39.7113 35.1469 39.7577 35.4969 39.7613H35.5362C36.5791 39.7613 37.5612 39.3971 38.3648 38.7328C38.8612 38.9935 39.2898 39.3649 39.6112 39.6899C38.3434 40.9577 36.9219 42.0754 35.3648 43.0075ZM40.8648 38.34C40.5076 37.9829 40.0541 37.5972 39.5219 37.2722C39.8219 36.6294 39.9612 35.9045 39.9005 35.1795C39.8148 34.1367 39.3576 33.1796 38.6005 32.4297C39.3898 31.9297 40.1326 31.5262 40.7648 31.5726C42.1398 31.6726 43.2005 33.2261 43.6684 34.1546C42.8934 35.6473 41.9541 37.0544 40.8648 38.34ZM44.5934 32.1262C43.8255 31.0512 42.6005 29.8513 40.9005 29.7299C39.5612 29.6335 38.3684 30.3763 37.2148 31.1262C35.9969 29.6835 36.3755 28.605 36.5541 28.2621C36.7398 27.9015 37.2648 26.898 39.2184 26.8158V26.8301C39.2791 26.8265 39.3398 26.8194 39.4041 26.8123C39.6291 26.8087 39.8684 26.8158 40.1291 26.8373C42.1291 27.0158 44.4434 28.1764 45.6148 28.8335C45.3577 29.9656 45.0148 31.0619 44.5934 32.1262ZM45.9541 26.9158C45.1219 26.4766 44.0005 25.948 42.7969 25.5516C43.0612 25.3409 43.3041 25.1088 43.5148 24.8481C44.1826 24.0267 44.5184 23.0197 44.5005 21.9662C45.0076 21.7412 45.5612 21.6376 46.0112 21.5912C46.2077 23.3982 46.1827 25.1802 45.9541 26.9158ZM45.7327 19.7663C45.2362 19.8235 44.6541 19.9378 44.0719 20.152C43.7576 19.5128 43.2755 18.9557 42.6719 18.5486C41.8041 17.9629 40.7684 17.7236 39.7112 17.8522C39.8148 16.9237 39.9612 16.0916 40.3898 15.6238C41.3255 14.6096 43.2076 14.7524 44.2219 14.9631C44.9041 16.488 45.4077 18.095 45.7327 19.7663ZM41.2755 10.1313C41.9969 11.0313 42.6505 11.9812 43.2219 12.9811C41.9041 12.9097 40.1969 13.1168 39.0362 14.3739C38.1255 15.3595 37.9612 16.7558 37.8291 18.1272C35.9433 18.1807 35.3326 17.2094 35.1791 16.8594C34.9898 16.438 34.4183 15.1488 36.3005 13.1775C37.6791 11.7241 40.0291 10.6384 41.2755 10.1313ZM35.8469 5.28882C36.0969 5.44953 36.3469 5.61023 36.5933 5.78164C37.8326 6.63872 38.9684 7.60651 39.9898 8.66715C39.1219 9.04569 38.0005 9.59565 36.9362 10.2956C36.9362 9.9492 36.9076 9.60994 36.8326 9.27782C36.6076 8.24218 36.0291 7.35296 35.1933 6.71015C35.3362 6.1709 35.6005 5.67094 35.8469 5.28882ZM35.0255 9.67422C35.2362 10.642 34.9362 11.7776 34.2041 12.7918L34.2076 12.7954C32.9791 14.481 32.9541 15.9559 33.2826 17.0558C32.7326 17.2522 32.1826 17.5379 31.7576 17.7951C31.2791 17.1987 30.7326 16.663 30.1362 16.1916C31.0791 15.3345 32.1362 13.981 31.9576 12.2883C31.8291 11.067 31.1398 10.0956 30.3541 9.24568C30.3755 9.20639 30.3969 9.17068 30.4148 9.12783C30.7362 8.46002 31.2755 7.97791 31.9362 7.77078C32.5398 7.58151 33.1933 7.64579 33.7255 7.94577C34.4148 8.33146 34.8648 8.93142 35.0255 9.67422ZM29.5541 2.55331C31.1719 2.97471 32.7433 3.57823 34.2469 4.36746C33.9791 4.79243 33.7041 5.32096 33.5076 5.91021C32.8112 5.76022 32.0791 5.78879 31.3826 6.00663C30.3862 6.32089 29.5505 6.98156 28.9933 7.88506C28.3291 7.2244 27.7719 6.5923 27.6755 5.96377C27.4612 4.59602 28.7541 3.2104 29.5541 2.55331ZM23.9255 1.84979C23.9648 1.84979 24.004 1.84622 24.0433 1.84622C25.1612 1.84622 26.2719 1.93192 27.3683 2.09977C26.4898 3.08541 25.5826 4.55316 25.8433 6.2459C26.0469 7.5708 27.0362 8.57073 28.0255 9.53137C26.8898 11.0384 25.754 10.9098 25.379 10.8134C24.9326 10.6956 23.5683 10.342 23.2005 7.64222C22.929 5.65665 23.5469 3.14255 23.9255 1.84979ZM20.0183 2.21405C20.6719 2.0962 21.3255 2.00692 21.979 1.94621C21.7326 2.86043 21.4648 4.08177 21.3469 5.34953C21.079 5.13526 20.7933 4.94599 20.4898 4.796C19.5398 4.32818 18.4862 4.22104 17.4612 4.4746C17.1255 4.02463 16.9005 3.50324 16.754 3.07113C17.804 2.70687 18.8933 2.42117 20.0183 2.21405ZM16.254 7.68151C16.4826 7.09226 16.9397 6.62087 17.5076 6.39231C18.2398 6.09591 18.9898 6.11733 19.6719 6.45302C20.5612 6.89228 21.2612 7.83507 21.5969 9.03855L21.604 9.03498C22.154 11.042 23.2933 11.9812 24.3576 12.4097C24.1683 12.9597 24.0505 13.5668 23.9862 14.0596C23.4005 14.0596 22.8112 14.1096 22.2148 14.2203C22.0469 14.2489 21.8826 14.2846 21.7183 14.3239C21.6362 13.0561 21.2326 11.3919 19.8005 10.4777C18.7648 9.81706 17.5755 9.74921 16.4219 9.83492C16.404 9.79564 16.3897 9.75278 16.3683 9.7135C16.0469 9.04926 16.0076 8.32789 16.254 7.68151ZM15.0362 3.75322C15.204 4.22819 15.4433 4.771 15.7826 5.29239C15.2326 5.74236 14.7933 6.33518 14.5326 7.0137C14.154 7.98863 14.154 9.05283 14.5112 10.0563C13.5826 10.1635 12.7397 10.2028 12.1897 9.88849C10.9933 9.20282 10.7147 7.34582 10.6969 6.30661C12.0255 5.30311 13.479 4.44246 15.0362 3.75322ZM8.98259 7.73864C9.20759 9.03855 9.79331 10.6456 11.2683 11.4919C12.4326 12.1598 13.829 12.0098 15.1969 11.8348C15.6683 13.6596 14.8576 14.4703 14.5505 14.7024C14.2255 14.9453 13.3183 15.6238 11.5219 14.8453L11.529 14.831C11.4719 14.806 11.4112 14.7881 11.354 14.7667C11.1505 14.6703 10.9397 14.5631 10.7147 14.4274C9.00045 13.4061 7.42545 11.3705 6.65045 10.2635C7.35759 9.36353 8.13973 8.52073 8.98259 7.73864ZM5.50402 11.8455C6.06116 12.599 6.83616 13.5561 7.74331 14.4274C7.41473 14.5024 7.0933 14.606 6.7933 14.7488C5.83259 15.1988 5.09687 15.9595 4.65401 16.9165C4.10044 16.8987 3.56116 16.7523 3.13616 16.5987C3.73258 14.9203 4.53259 13.324 5.50402 11.8455ZM2.58615 18.3629C3.06116 18.5271 3.63258 18.6771 4.24687 18.7378C4.25401 19.4485 4.4433 20.1592 4.81116 20.7913C5.33973 21.6948 6.1683 22.359 7.17545 22.7054C6.67902 23.4982 6.18616 24.1839 5.59687 24.416C4.31473 24.9231 2.68258 23.9803 1.86115 23.3482C1.91115 21.6412 2.15758 19.9735 2.58615 18.3629ZM2.21115 27.98C2.06473 27.1729 1.96473 26.3694 1.90758 25.5695C2.70401 26.0087 3.72187 26.4051 4.80044 26.4051C5.28616 26.4051 5.78259 26.323 6.27902 26.1302C7.52545 25.6373 8.28259 24.4481 8.99688 23.2732C10.7183 24.0446 10.8469 25.1838 10.8326 25.5659C10.8183 26.0266 10.7755 27.4372 8.22545 28.3943C6.35045 29.0978 3.76473 29.0585 2.42187 28.9728C2.3433 28.6514 2.27187 28.3157 2.21115 27.98ZM5.20044 35.7009C4.2683 34.2046 3.50401 32.5833 2.9433 30.8584C3.2183 30.8691 3.5183 30.8762 3.83616 30.8762C4.61473 30.8762 5.50402 30.837 6.40045 30.7191C6.25045 31.0298 6.12902 31.3512 6.05045 31.6798C5.80402 32.7118 5.93616 33.7617 6.41116 34.7045C6.04687 35.1295 5.58973 35.4616 5.20044 35.7009ZM6.23973 37.2294C6.66473 36.9615 7.14688 36.6044 7.57902 36.158C8.13973 36.5973 8.81474 36.8901 9.53617 36.9937C10.5719 37.1436 11.6076 36.9115 12.5076 36.3401C12.8183 37.2222 13.0469 38.0364 12.8612 38.64C12.4576 39.9613 10.7005 40.647 9.69331 40.8969C8.41116 39.8113 7.25402 38.5828 6.23973 37.2294ZM11.4647 42.2468C12.6826 41.7397 14.129 40.8112 14.629 39.1792C15.0219 37.8972 14.5647 36.5651 14.0897 35.2724C15.7647 34.4081 16.7362 35.0188 17.029 35.2688C17.3398 35.5331 18.2005 36.2651 17.8433 38.19L17.829 38.1864C17.8183 38.2471 17.8147 38.3078 17.804 38.3721C17.7576 38.5935 17.6969 38.8221 17.6147 39.0721C16.9969 40.9791 15.3505 42.9718 14.4505 43.9681C13.4076 43.4718 12.4112 42.8968 11.4647 42.2468ZM21.4148 45.9966C19.629 45.7859 17.8933 45.3573 16.2397 44.7359C16.854 44.0217 17.6219 43.0468 18.2755 41.9612C18.4255 42.2647 18.5969 42.554 18.8005 42.8182C19.454 43.6539 20.3576 44.2038 21.3898 44.4217C21.4933 44.9752 21.4719 45.543 21.4148 45.9966ZM22.1755 42.6754C21.3862 42.6254 20.7219 42.279 20.254 41.6826C19.6755 40.9434 19.4505 39.872 19.6183 38.715C20.0719 36.5508 19.4433 35.1474 18.6505 34.2724C19.0612 33.8617 19.429 33.3689 19.6969 32.9547C20.3755 33.2832 21.0933 33.5296 21.8362 33.6939C21.3576 34.8724 20.9969 36.5508 21.8898 37.9972C22.5362 39.0435 23.5755 39.6185 24.654 40.0399C24.654 40.0863 24.6505 40.1291 24.6505 40.1756C24.6505 40.9148 24.3719 41.5862 23.8683 42.0576C23.404 42.4897 22.7898 42.7147 22.1755 42.6754ZM23.254 44.4145C23.9469 44.2503 24.5969 43.9074 25.129 43.4075C25.8933 42.6932 26.3576 41.7362 26.4683 40.6791C27.3505 40.9862 28.1291 41.3148 28.4862 41.8397C29.2683 42.9825 28.7041 44.7895 28.2683 45.7287C28.1719 45.7466 28.0719 45.7716 27.9755 45.7894C26.3862 46.0787 24.8076 46.1858 23.254 46.1358C23.3112 45.6323 23.3326 45.0359 23.254 44.4145Z" fill="white"/>
<path d="M24.2212 25.2111C24.8873 25.0899 25.3313 24.4467 25.2102 23.7798C25.1496 23.4565 24.968 23.1737 24.6989 22.9884C24.4903 22.8436 24.2515 22.7695 24.0026 22.7695C23.9286 22.7695 23.8546 22.7763 23.7772 22.7897C23.4543 22.847 23.1751 23.0322 22.9867 23.3016C22.7984 23.5711 22.7311 23.9011 22.7883 24.2244C22.9127 24.8878 23.5552 25.3324 24.2212 25.2111Z" fill="white"/>
<path d="M181.121 21.9071C181.624 16.4462 178.868 14.4404 174.614 14.4404H168.062V33.9998H171.212V28.9332L173.974 26.9737L179.412 33.9998H183.185L176.415 25.2404C176.415 25.2404 179.474 23.1129 181.121 21.9071ZM171.212 25.6288V17.3854H174.832C177.073 17.3854 178.079 18.4868 177.948 20.8462L171.212 25.6288Z" fill="white"/>
<path d="M105.636 14.4404V33.9998H116.911V30.8288H108.787V14.4404H105.636Z" fill="white"/>
<path d="M151.155 26.1738V14.2202H148.004V26.2608C148.004 29.2927 146.157 30.9738 143.413 30.9738C140.668 30.9738 138.793 29.2927 138.793 26.2608V14.2202H135.643V26.1738C135.643 30.997 138.873 33.9999 143.413 33.9999C147.947 33.9999 151.155 30.997 151.155 26.1738Z" fill="white"/>
<path d="M195.61 21.8955C194.461 21.8955 193.534 22.8346 193.534 23.9999C193.534 25.1651 194.466 26.1042 195.61 26.1042C196.753 26.1042 197.685 25.1651 197.685 23.9999C197.685 22.8346 196.753 21.8955 195.61 21.8955Z" fill="white"/>
<path d="M195.61 14C190.149 14 185.747 18.3536 185.747 24C185.747 29.6464 190.149 34 195.61 34C201.099 34 205.473 29.6464 205.473 24C205.473 18.3536 201.099 14 195.61 14ZM195.61 30.9739C191.808 30.9739 188.954 27.9188 188.954 24.0058C188.954 20.0927 191.808 17.0377 195.61 17.0377C199.412 17.0377 202.265 20.0927 202.265 24.0058C202.265 27.913 199.412 30.9739 195.61 30.9739Z" fill="white"/>
<path d="M251.575 22.8464L250.082 22.1565C248.155 21.3333 247.281 20.4232 247.281 19.1536C247.281 17.8029 248.533 17.0319 249.836 17.0319C251.22 17.0319 252.095 17.5536 253.095 18.7652L255.268 16.4812C253.856 14.771 252.089 14 249.859 14C246.926 14 244.124 16.0406 244.124 19.1768C244.124 21.7101 245.565 23.5826 248.47 24.8811L249.991 25.542C251.895 26.3942 252.792 27.2522 252.792 28.7072C252.792 30.1101 251.706 30.9681 249.831 30.9681C248.144 30.9681 246.652 29.8667 245.754 28.6261L243.364 30.6667C244.588 32.6782 246.949 34 249.859 34C253.581 34 256 31.7391 256 28.4348C256 25.7101 254.21 24 251.575 22.8464Z" fill="white"/>
<path d="M125.722 33.9998V17.9477C127.615 17.8781 129.502 17.6868 131.377 17.3622V14.168C126.592 15.0549 121.691 15.0549 116.906 14.168V17.3622C118.781 17.6868 120.668 17.8781 122.561 17.9477V33.9998H125.722Z" fill="white"/>
<path d="M207.079 14.168V17.3622C208.955 17.6868 210.842 17.8781 212.734 17.9477V33.9998H215.902V17.9535C217.794 17.8839 219.681 17.6926 221.557 17.368V14.1738C216.765 15.0607 211.865 15.0607 207.079 14.168Z" fill="white"/>
<path d="M81.8735 33.9999H85.0754L86.3733 29.7796C89.3294 29.2347 92.354 29.2347 95.3101 29.7854L96.608 33.9999H99.8099L93.692 14.4463H87.9914L81.8735 33.9999ZM91.5078 17.4086L94.3266 26.5912C92.011 26.2956 89.6667 26.2956 87.351 26.5912L90.1699 17.4144H91.5078V17.4086Z" fill="white"/>
<path d="M228.595 14.4463L222.477 33.9999H225.679L226.977 29.7796C229.933 29.2347 232.958 29.2347 235.914 29.7854L237.212 33.9999H240.414L234.296 14.4463H228.595ZM227.955 26.5912L230.774 17.4144H232.106L234.925 26.597C232.615 26.2956 230.27 26.2956 227.955 26.5912Z" fill="white"/>
<path d="M71.8218 33.9941C76.1672 33.9941 78.3628 31.2927 78.3628 28.1448C78.3628 25.5303 76.253 23.6115 74.2061 22.4057C74.2061 22.4057 74.7321 22.0289 76.7619 20.5912C76.7619 16.2318 74.4233 14.4463 70.9241 14.4463H64V33.9999H64.5775H71.8218V33.9941ZM67.1504 17.3796H70.3867C72.2049 17.3796 73.2684 18.0927 73.5257 19.5535L67.1504 24.0695V17.3796ZM67.1504 27.397L71.7875 24.11C73.2741 24.7767 75.2524 26.5332 75.2524 28.139C75.2524 29.7216 74.006 30.997 71.959 30.997H67.1504V27.397Z" fill="white"/>
</svg>
