<svg width="20" height="20" viewBox="0 0 20 20" fill="none" xmlns="http://www.w3.org/2000/svg">
  <path d="M15.8332 7.5L9.99984 13.3333L4.1665 7.5" stroke="#202A44" stroke-width="1.3" stroke-linecap="square"/>
</svg>
