<?xml version="1.0" encoding="utf-8"?>
<!-- Generator: Adobe Illustrator 27.0.0, SVG Export Plug-In . SVG Version: 6.00 Build 0)  -->
<svg version="1.1" id="Layer_1" xmlns="http://www.w3.org/2000/svg" xmlns:xlink="http://www.w3.org/1999/xlink" x="0px" y="0px"
	 viewBox="0 0 100 63.8" style="enable-background:new 0 0 100 63.8;" xml:space="preserve">
<style type="text/css">
	.st0{fill:#111727;}
	.st1{fill:#FFFFFF;}
	.st2{fill:none;stroke:#FFFFFF;stroke-width:0.999;stroke-miterlimit:10;}
	.st3{fill:#202A44;}
	.st4{fill:none;stroke:#202A44;stroke-width:0.5;stroke-miterlimit:10;}
	.st5{fill:none;stroke:#202A44;stroke-width:0.5;stroke-linecap:round;stroke-linejoin:round;stroke-miterlimit:10;}
	.st6{fill:none;stroke:#FFFFFF;stroke-linecap:round;stroke-linejoin:round;stroke-miterlimit:10;}
	.st7{fill:none;stroke:#202A44;stroke-linecap:round;stroke-linejoin:round;stroke-miterlimit:10;}
	.st8{fill:none;stroke:#FFFFFF;stroke-width:0.5;stroke-miterlimit:10;}
	.st9{fill:none;stroke:#FFFFFF;stroke-width:0.5;stroke-linecap:round;stroke-linejoin:round;stroke-miterlimit:10;}
</style>
<g>
	<path class="st1" d="M87.9,45.87H38.36c-0.42,0-0.78-0.28-0.89-0.69L26.46,1.83H0.91C0.41,1.83,0,1.42,0,0.92S0.41,0,0.91,0h26.26
		c0.42,0,0.78,0.28,0.89,0.69l11.02,43.36h48.11L98.2,0.69c0.12-0.49,0.62-0.79,1.11-0.66c0.49,0.12,0.79,0.62,0.66,1.11
		L88.78,45.19C88.68,45.59,88.31,45.87,87.9,45.87z"/>
	<g>
		<path class="st1" d="M49.33,63.8c-3.15,0-5.72-2.57-5.72-5.72c0-3.15,2.57-5.72,5.72-5.72c3.15,0,5.72,2.57,5.72,5.72
			C55.04,61.24,52.48,63.8,49.33,63.8z M49.33,54.19c-2.15,0-3.89,1.75-3.89,3.89c0,2.15,1.75,3.89,3.89,3.89
			c2.15,0,3.89-1.75,3.89-3.89C53.22,55.94,51.47,54.19,49.33,54.19z"/>
		<path class="st1" d="M76.94,63.8c-3.15,0-5.72-2.57-5.72-5.72c0-3.15,2.57-5.72,5.72-5.72s5.72,2.57,5.72,5.72
			C82.66,61.24,80.09,63.8,76.94,63.8z M76.94,54.19c-2.15,0-3.89,1.75-3.89,3.89c0,2.15,1.75,3.89,3.89,3.89s3.89-1.75,3.89-3.89
			C80.83,55.94,79.08,54.19,76.94,54.19z"/>
	</g>
</g>
</svg>
